(Very) basic steps to weight a survey sample
…
rm(data.variables)

The goal of this guide will be to to give UK population estimates for cigarette and alcohol consumption based on ESS respondents. These will be our Y variables or variables of interest. The idea is to give descriptives of the distribution of these two variables (such as quantiles and mean) and then a simple extrapolation and compute total cigarette and alcohol consumption for the whole UK.

These are our Y variables:

cgtsday : Number of cigarettes smoked on a typical day.

alcohol_day : Grams of alcohol ingested on a daily basis. Computed in the Recoding section from the amount of alcohol drank last time during weekdays and weekend.

data[resp.y] %>%
  as_data_frame() %>%
  print()

## # A tibble: 5,600 x 6
##    cgtsmke                         cgtsday alcfreq              alcwkdy
##  * <fct>                             <dbl> <fct>                  <dbl>
##  1 I have never smoked                   0 Once a week                0
##  2 I smoke daily                        10 Once a week               48
##  3 I have never smoked                   0 Several times a week      42
##  4 I have never smoked                   0 Never                     NA
##  5 I smoke daily                        20 2-3 times a month         55
##  6 I don't smoke now but I used to       0 Several times a week      26
##  7 I don't smoke now but I used to       0 Once a week               17
##  8 I smoke daily                        15 Never                     NA
##  9 I have never smoked                   0 Never                     NA
## 10 I smoke daily                        20 Several times a week      42
##    alcwknd alcohol_day
##  *   <dbl>       <dbl>
##  1       8      0.327 
##  2      96      8.82  
##  3       0      0.914 
##  4      NA      0     
##  5       0      0.0327
##  6      32     24.7   
##  7       0      0.131 
##  8      NA      0     
##  9      NA      0     
## 10     121     12     
## # ... with 5,590 more rows

2.1.1 Paradata variables

The 7th ESS survey contains variables which give information about the data collection process. First, we have some variables that come from the ‘sample data (SDDF)’ file. These contain info about the ‘primary sampling unit’ and the probability of each unit of being selected in the sample. These two variables are only available for respondents. In a real project we would most probably have to compute the probability of being sampled ourselves.

psu: This variable includes information on the primary sampling unit (PSU). In the UK this refers to the ‘postcode address file’.

prob: Probability of being included in the sample (i.e. approached for survey).

data[vars.sample.data] %>%
  as_data_frame() %>%
  print()

## # A tibble: 5,600 x 3
##         idno   psu      prob
##  *     <dbl> <dbl>     <dbl>
##  1 100000003  9388 0.000203 
##  2 100000005  9241 0.000203 
##  3 100000008  9472 0.000203 
##  4 100000009  9450 0.0000508
##  5 100000010  9479 0.000102 
##  6 100000012  9460 0.000102 
##  7 100000015  9440 0.000102 
##  8 100000016  9494 0.000203 
##  9 100000017  9376 0.000102 
## 10 100000020  9273 0.000102 
## # ... with 5,590 more rows
…
